{
  "EDITOR_STATE": {
    "allProjectFiles": {
      "b75b7112-8206-4623-a1fc-40e96293fa50": {
        "id": "b75b7112-8206-4623-a1fc-40e96293fa50",
        "parent": null,
        "name": "cm-mangopay",
        "type": "DIRECTORY",
        "isDirectory": true,
        "children": [
          "9a4d0d79-b5c1-4c74-b03b-567b8ddc0987"
        ],
        "isRemovable": false,
        "filePath": "cm-mangopay"
      },
      "9a4d0d79-b5c1-4c74-b03b-567b8ddc0987": {
        "id": "9a4d0d79-b5c1-4c74-b03b-567b8ddc0987",
        "parent": "b75b7112-8206-4623-a1fc-40e96293fa50",
        "name": "lambda.js",
        "type": "JS_LAMBDA",
        "isDirectory": false,
        "children": [],
        "isRemovable": true,
        "filePath": "cm-mangopay/lambda.js",
        "code": "\n\nexports.handler = function(event, context, callback) {\n    callback(null, {statusCode: 200});\n}",
        "config": {
          "runtime": "nodejs8.10",
          "handler": "handler",
          "timeout": 60,
          "memory": 128,
          "layers": []
        },
        "triggers": [
          {
            "resourceName": "apigusEast1devCreativeMarketAdminkycSuccessget",
            "config": {}
          }
        ]
      }
    },
    "deletedFiles": [],
    "rootNode": "b75b7112-8206-4623-a1fc-40e96293fa50",
    "openFiles": [
      "9a4d0d79-b5c1-4c74-b03b-567b8ddc0987"
    ],
    "currentFileId": "9a4d0d79-b5c1-4c74-b03b-567b8ddc0987",
    "resources": {
      "apigusEast1devCreativeMarketAdminkycSuccessget": {
        "name": "apigusEast1devCreativeMarketAdminkycSuccessget",
        "type": "API_GATEWAY",
        "config": {
          "selectedRegion": "us-east-1",
          "apiMode": 1,
          "apiName": "dev-creative-market-admin",
          "apiId": "hfgk1oqild",
          "endpointType": "EDGE",
          "rootResourceId": "kq81bss5ig",
          "existingResources": {
            "/addUserFavouriteGear": "3cmf5m",
            "/updateUser": "6u015w",
            "/showRentGearProductsList": "6zcbqa",
            "/getAllProductsCategory": "72q0s6",
            "/viewUserFavouriteGear": "9maifp",
            "/deleteUser": "bhaep1",
            "/viewUserDashboard": "bu2x7l",
            "/deleteGear": "frectb",
            "/getGearsBriefInfo": "ftyqa5",
            "/updateGear": "gl6poc",
            "/deleteUserGear": "jra7mp",
            "/": "kq81bss5ig",
            "/getGearList": "q9txlr",
            "/getUserList": "rnizav",
            "/viewUserGearList": "v05z18",
            "/deleteUserFavouriteGear": "xsepop"
          },
          "resourceMode": 0,
          "resourceName": "kycSuccess",
          "resourcePath": "/kycSuccess",
          "restMethod": "GET",
          "proxyIntegration": false,
          "enableCORS": false,
          "stageMode": 1,
          "stageName": "dev",
          "stageDeploymentId": "jwxo94",
          "mode": 1
        }
      }
    },
    "customTemplate": {
      "dialect": null,
      "definitions": {}
    },
    "envVariables": [
      {
        "lambdaId": "all",
        "varKey": "SIGMA_AWS_ACC_ID",
        "varValue": null,
        "shouldPersist": false,
        "displayOnly": false,
        "editable": false
      }
    ],
    "packageJSON": {
      "dependencies": {}
    }
  },
  "PROJECT_META": {
    "projectName": "cm-mangopay",
    "projectDescription": "",
    "projectVersion": "1.0.0",
    "projectRegion": "us-east-1",
    "platform": "AWS",
    "platformRegions": {},
    "lastSave": 1562943767090
  },
  "VCS_STATE": {
    "provider": "BitBucket",
    "repo": {
      "name": "cm-mangopay",
      "url": "https://bitbucket.org/higherstar/cm-mangopay"
    }
  }
}